{
  "name": "",
  "version": "0.0.0",
  "description": "",
  "sampleUrl": false,
  "apidoc": "0.2.0",
  "generator": {
    "name": "apidoc",
    "time": "2016-11-14T05:25:00.710Z",
    "url": "http://apidocjs.com",
    "version": "0.16.1"
  }
}
